021f9e08fad332eb5bc33f8d58e7cbb6.jpg
05ba83ee2d02d8a0f97bf955fdea110f.jpg
08e013b9168c3b8de8d7b14e1da3c18a.jpg
0bf57e3bd2237c39f1e4515065d4a9f1.jpg
0e739cbfe37714eee8f7e9dcdac50675.jpg
1020c99435d9811f118a3113273173cf.jpg
16901e14fa18f0eb6829bf3888d896ef.jpg
19b2d31ffc00e10a6ac65d47062b4d52.jpg
1c23c43ec757b437b3818edcbd63f6ca.jpg
1d970c061e7e99fc31b288c148c7622d.jpg
230c5c6a4b3a861a6a3eb249f90e2e73.jpg
2573df2bbe94fdd149bdc5c2e16dec7c.jpg
25a11a1f88e7fbdbe8ae9cf775e0560c.jpg
26e985246c15c32c87bce00d12a7ea56.jpg
3170f85167690d644a1d7fd09cf40832.jpg
319172266109f678c48c39686ac1aea0.jpg
325858450f5f76b607daa473fb4b8604.jpg
37711d011f8b1e8b1318708bca769310.jpg
379ca31f2b25e9dcb2778e79d74bb10e.jpg
37d16c89ef4985da40317e843d56756c.jpg
3d4ba8dd2cca08480f6232807d05857c.jpg
3defd9db278a7ee470fb6201b4c0e46c.jpg
3eab107c46255f8057352b509daefb0b.jpg
440b3167910bde0767f941004e78fba4.jpg
4513e3360bf3a66d0f0c304c67fa1fb5.jpg
46610d56d1be8e7ec0f9d75ee5307a14.jpg
484582de9f8532ce0a52ec8672b22c86.jpg
4e158158e0babeaa2c25845b6df5c497.jpg
4ec0e401693b8df2eac2a25a5120a1f1.jpg
4f79be690dc9a24d4659764d5cb84ff9.jpg
500d045d0a269ca1aa7da43fcc06ff9b.jpg
517120ce6181248c738d2d5cb44b8805.jpg
54cb45ab5d2900c6b97b6d5e12648e16.jpg
58c09f19f2ab43d2e7a3de1200fe7b80.jpg
5ea1cb31566aa7f1c265b896063a2257.jpg
696421f1740ead24f9a981f5227c01a3.jpg
6a70676043df29964644b5894db88a4c.jpg
6aff47b3b331faf24cf208847152d704.jpg
6cceb3d1b779a9a5c366e617b2a47089.jpg
72bc3744f4130ff08117a084eaeb673b.jpg
7b2c030b302a7fe4b831939ce448c4d5.jpg
8acdcc0a8c96eb8f7148f9530e3f5820.jpg
8b1294f88a2cc09aa379834af333138a.jpg
8d0cae8f6652cc4ae0da28b207bbf850.jpg
90d6a9cb818ace23403979d4eb8d8978.jpg
9157c21f3c88915bd37ee87435ef9033.jpg
924399c55e346ac237d1e0f24779b9b7.jpg
95a92e476902bc5adc554328c22aa346.jpg
96f98a90c474dd5754bebe1356832384.jpg
97db5346fa464bcd4a2b88137f3f877f.jpg
9a80b32bb0043c02b95b234cc743828e.jpg
9d9f4efe40ebb4936dfa7f37d4beea6e.jpg
a387760b0805d8f7018f89e84278b747.jpg
a46c3cbfdcb1e5d6d9c56c4cf8b60784.jpg
a668af7fc2e253955c86fa3c720ca5dc.jpg
a758802aa5d9ff4a1d77c2e0ab06ab17.jpg
a977fcc7916798e55bf32f53205c9b03.jpg
aaa8bffab7eeecd536a0b2f69a5f862a.jpg
ab6ad9c507162391872070e4579b6fcb.jpg
b072e858dca013c116940bd1fe3ae093.jpg
b4a6b46b49eea2bb34e6e819752233c1.jpg
b5057939cfd90cb2b4d24f3cddfc89ac.jpg
b5a05b63b82da9d97c6800d8bd66feb2.jpg
bfdf0479ef7179a97c0bcd13c67ecdcf.jpg
c061e37ca19bc2b1906d247f0e44b297.jpg
c23b4bbbfcd4201c69bd1a94a60be9e8.jpg
c3c332f9d591db6a9d97daa679f4d994.jpg
c7ce99a05d81e220a9ba5c94951dfd6d.jpg
c83d7369a61ae37002011caf73b0c8ff.jpg
c83e40b768b1b9bbef29fc4b5aeeb65d.jpg
c9eeb181f3135abcbbc63aa00eb9c6b1.jpg
ce5805b7d25c818977d1aac9862bbdbd.jpg
d24fef0de26a4383dde89a033fcd8ea9.jpg
d40a7cc1a8426f6fa47e1be9d0425bcd.jpg
d61615b3d10c14d60d933d9624b23df8.jpg
da543a7a49bb6ca6d18e0a1b69354b9b.jpg
dd9e6e6ae3cc3934666812966a307d90.jpg
dde9d671c0047a84763567fc6d210c31.jpg
e5a9a1161eefd568acc5e81d5a217dd5.jpg
e76c995321bd3d4b35185cf5429edd55.jpg
ea4df53732eb0b4041c3550ecd0bd84d.jpg
eb55c049d4ab704567621b6e751bbd29.jpg
f24bb838155e3689dd98b5750de2a32a.jpg
f3158af3404a92c1f1820ec0afffb65c.jpg
f5c02949bc08ac5b9074511a142db3e9.jpg
f90da2ad62e92080e457fce367244219.jpg
